[{
    "facilityId": 2,
    "facilityName": "facility1"

},
{
    "facilityId": 1,
    "facilityName": "facility2"

},
{
    "facilityId": 42,
    "facilityName": "facility3"
},
{
    "facilityId": 2,
    "facilityName": "facility4"

}
]